{
  "$schema": "https://gitlab.com/xaurora/nova-downloads/-/raw/main/schemas/repo.json",
  "repo": {
    "name": "nova-core-repo",
    "url": "https://gitlab.com/xaurora/nova-core-repo/-/raw/main/repo.json?inline=false"
  },
  "arches": [
    "x86_64"
  ],
  "packages": [
    {
      "name": "nova",
      "version": "1.0.0",
      "description": "The nova package manager",
      "arch": [
        "x86_64"
      ],
      "dl": "https://gitlab.com/xaurora/nova-core-repo/-/raw/main/x86_64/nova.xapp?inline=false"
    }
  ],
  "maintainers": [
    {
      "name": "Arif O.",
      "email": "samsara@xonon.ml"
    }
  ]
}
